{
    "@id": "http://schema.org/ControlAction",
    "name": "ControlAction",
    "description": "An agent controls a device or application.",
    "title": "ControlAction",
    "abstract": false,
    "sealed": false,
    "inherits": "Action",
    "version": "1.0",
    "fields": [],
    "privileges": [
        {
            "mask": 15,
            "type": "global"
        },
        {
            "mask": 15,
            "type": "global",
            "account": "Administrators"
        }
    ]
}
