{
    "name": "CourseExamClass",
    "title": "Σύνδεση τάξεων με εξετάσεις μαθημάτων",
    "hidden": false,
    "sealed": false,
    "version": "2.0",
    "fields": [
        {
            "name": "id",
            "title": "Κωδικός",
            "description": "Ο μοναδικός κωδικός της σύνδεσης τάξης - εξέτασης",
            "type": "Text",
            "nullable": false,
            "primary": true,
            "size": 36
        },
        {
            "name": "courseClass",
            "title": "Κωδικός τάξης",
            "description": "Κωδικός τάξης",
            "type": "CourseClass",
            "nullable": false
        },
        {
            "name": "courseExam",
            "title": "Κωδικός Εξέτασης",
            "description": "Κωδικός Εξέτασης",
            "type": "CourseExam",
            "nullable": false
        },
        {
            "name": "dateModified",
            "title": "Ημερομηνία τελευταίας τροποποίησης",
            "description": "Ημερομηνία τελευταίας τροποποίησης",
            "type": "DateTime",
            "nullable": false,
            "size": 8
        }
    ],
    "privileges": [
        {
            "mask": 1,
            "type": "global",
            "account": "*"
        },
        {
            "mask": 15,
            "type": "global"
        }
    ]
}