{
  "name": "Internship",
  "id": 605961235,
  "title": "Πρακτική άσκηση",
  "hidden": false,
  "sealed": false,
  "version": "2.1",
  "fields": [
    {
      "name": "id",
      "title": "Κωδικός",
      "description": "Ο μοναδικός κωδικός της πρακτικής άσκησης",
      "type": "Integer",
      "nullable": false,
      "size": 4,
      "primary": true
    },
    {
      "name": "subject",
      "title": "Θέμα",
      "description": "Το θέμα της πρακτικής άσκησης",
      "type": "Text",
      "nullable": true,
      "size": 512
    },
    {
      "name": "department",
      "title": "Τμήμα",
      "description": "Το τμήμα που προσφέρει την πρακτική άσκηση.",
      "type": "Department",
      "nullable": false
    },
    {
      "name": "student",
      "title": "Φοιτητής",
      "description": "Φοιτητής",
      "type": "Student",
      "nullable": true
    },
    {
      "name": "organization",
      "title": "Οργανισμός",
      "description": "Η εταιρεια-οργανισμός που προσφέρει την πρακτική άσκηση",
      "type": "Text",
      "nullable": true,
      "size": 255
    },
    {
      "name": "organizationContact",
      "title": "Υπεύθυνος",
      "description": "Ο υπεύθυνος επικοινωνίας της εταιρείας-οργανισμού.",
      "type": "Text",
      "nullable": true,
      "size": 255
    },
    {
      "name": "organizationContactPhone",
      "title": "Τηλέφωνο υπεύθυνου",
      "description": "Το τηλέφωνο επικοινωνίας του υπεύθυνου της εταιρείας-οργανισμού.",
      "type": "Text",
      "nullable": true,
      "size": 40
    },
    {
      "name": "assignedYear",
      "title": "Ακαδημαϊκό έτος",
      "description": "Το ακαδημαϊκό έτος διεξαγωγής της πρακτικής άσκησης.",
      "type": "AcademicYear",
      "expandable": true,
      "nullable": false
    },
    {
      "name": "assignedPeriod",
      "title": "Ακαδημαϊκή περίοδος",
      "description": "Η ακαδημαϊκή περίοδος διεξαγωγής της πρακτικής άσκησης.",
      "type": "AcademicPeriod",
      "expandable": true
    },
    {
      "name": "assignedDate",
      "title": "Ημερομηνία ανάθεσης",
      "description": "Η ημερομηνία ανάθεσης στην πρακτική άσκηση",
      "type": "DateTime",
      "nullable": true,
      "size": 4
    },
    {
      "name": "startDate",
      "title": "Ημερομηνία έναρξης",
      "description": "Η ημερομηνία έναρξης της πρακτικής άσκησης",
      "type": "DateTime",
      "nullable": true
    },
    {
      "name": "endDate",
      "title": "Ημερομηνία λήξης",
      "description": "Η ημερομηνία λήξης της πρακτικής άσκησης.",
      "type": "DateTime",
      "nullable": true
    },
    {
      "name": "status",
      "title": "Κατάσταση",
      "description": "Η κατάσταση της πρακτικής άσκησης.",
      "type": "InternshipStatus",
      "nullable": false
    },
    {
      "name": "instructor",
      "title": "Υπεύθυνος",
      "description": "Ο επιστημονικός υπεύθυνος της εργασίας.",
      "type": "Instructor",
      "nullable": true
    },
    {
      "name": "completeDate",
      "title": "Ημερομηνία ολοκλήρωσης",
      "description": "Η ημερομηνία ολοκλήρωσης της πρακτικής άσκησης.",
      "type": "DateTime"
    },
    {
      "name": "notes",
      "title": "Σημειώσεις",
      "description": "Σημειώσεις",
      "type": "Text",
      "size": 1024
    },
    {
      "name": "dateModified",
      "title": "Ημερομηνία τροποποίησης",
      "description": "Ημερομηνία τροποποίησης",
      "type": "DateTime",
      "nullable": false
    }
  ],
  "privileges": [
    {
      "mask": 15,
      "type": "global"
    },
    {
      "mask": 1,
      "type": "self",
      "filter": "student eq student()"
    },
    {
      "mask": 1,
      "type": "self",
      "filter": "instructor eq instructor()"
    }
  ]
}