{
  "name": "StudentRequest",
  "id": 5671707,
  "title": "Student Requests",
  "hidden": false,
  "sealed": false,
  "version": "2.0",
  "fields": [
      {
          "name": "id",
          "title": "Μοναδικός κωδικός εγγραφής",
          "description": "Μοναδικός κωδικός εγγραφής",
          "type": "Integer",
          "nullable": false,
          "size": 4,
          "primary":true,
          "value":"javascript:return this.newid();",
          "readonly":true
      },
      {
          "name": "userId",
          "title": "Κωδικός χρήστη",
          "description": "Κωδικός χρήστη",
          "type": "User",
          "nullable": false,
          "value":"javascript:return this.user();"
      },
      {
          "name": "student",
          "property": "student",
          "title": "Κωδικός φοιτητή",
          "description": "Κωδικός φοιτητή",
          "type": "Student",
          "readonly": true
      },
      {
          "name": "requestId",
          "title": "Κωδικός τύπου αίτησης",
          "description": "Κωδικός τύπου αίτησης",
          "type": "Text",
          "nullable": false
      },
      {
          "name": "name",
          "title": "Ονομασία",
          "description": "Ονομασία",
          "type": "Text",
          "nullable": false,
          "size":100
      },
      {
          "name": "description",
          "title": "Περιγραφή",
          "description": "Περιγραφή",
          "type": "Text",
          "nullable": false,
          "size":1024
      },
      {
          "name": "dateRequested",
          "title": "Ημερομηνία αίτησης",
          "description": "Ημερομηνία αίτησης",
          "type": "DateTime",
          "nullable": false,
          "value":"javascript:return this.now();"
      },
      {
          "name": "statusId",
          "title": "Status Id" ,
          "description": "Status Id",
          "type": "Integer",
          "nullable": true,
          "value": "javascript:return 2;"
      },
      {
          "name": "status",
          "title": "Status" ,
          "description": "Status",
          "type": "Text",
          "readonly": true
      },
      {
          "name": "numberOfCopies",
          "title": "Αρ. αντιγράφων" ,
          "description": "Αρ. αντιγράφων",
          "type": "Integer",
          "nullable": false,
          "value": "javascript:return 1;"
      },
      {
          "name": "receiveFrom",
          "title": "Παραλαβή από" ,
          "description": "Παραλαβή από",
          "type": "Text",
          "nullable": true
      },
      {
          "name": "sentToEmailAddress",
          "title": "Αποστολή στην ηλεκτρονική διεύθυνση" ,
          "description": "Αποστολή στην ηλεκτρονική διεύθυνση",
          "type": "Text",
          "nullable": true
      },
      {
          "name": "sentToAddress",
          "title": "Αποστολή στη διεύθυνση" ,
          "description": "Αποστολή στη διεύθυνση",
          "type": "Text",
          "nullable": true
      },
      {
          "name": "relativeFile",
          "title": "Σχετικό αρχείο" ,
          "description": "Σχετικό αρχείο",
          "type": "Text",
          "nullable": true
      },

      {
          "name": "dateModified",
          "title": "Date Modified",
          "description": "Date Modified",
          "type": "DateTime",
          "nullable": false,
          "value":"javascript:return this.now();"
      }
  ], "privileges":[
    { "mask":1, "type":"global", "account":"Administrators" },
    { "mask":3, "type":"self", "filter":"userId eq me()" },
  { "mask":15, "type":"global" }
]
}