{
    "name": "StudyProgramSpecialty",
    "id": 797961919,
    "title": "Κατευθύνση προγράμματος σπουδών",
    "hidden": false,
    "sealed": false,
    "version": "2.0",
    "fields": [
        {
            "name": "id",
            "title": "Κωδικός",
            "description": "Ο μοναδικός κωδικός της κατεύθυνσης.",
            "type": "Text",
            "nullable": false,
            "size": 36,
            "primary": true,
            "readonly": true,
            "value": "javascript:return this.newGuid();"
        },
        {
            "name": "studyProgram",
            "title": "Πρόγραμμα σπουδών",
            "description": "Το πρόγραμμα σπουδών στο οποίο ανήκει η κατεύθυνση",
            "type": "StudyProgram",
            "nullable": false
        },
        {
            "name": "specialty",
            "title": "Κωδικός κατεύθυνσης προγράμματος σπουδών",
            "description": "Ο κωδικός της κατεύθυνσης",
            "type": "Integer",
            "nullable": false
        },
        {
            "name": "name",
            "title": "Περιγραφή",
            "description": "Μία σύντομη περιγραφή για την κατεύθυνση",
            "type": "Text",
            "nullable": false,
            "size": 150
        },
        {
            "name": "abbreviation",
            "title": "Συντομογραφία",
            "description": "Η συντομογραφία της κατεύθυνσης",
            "type": "Text",
            "nullable": true,
            "size": 20
        },
        {
            "name": "canGraduate",
            "title": "Απονέμει τίτλο σπουδών",
            "description": "Απονέμει τίτλο σπουδών (ΝΑΙ/ΟΧΙ) στους φοιτητές που το παρακολουθούν",
            "type": "Boolean",
            "nullable": false,
            "value": "javascript:return 1;"
        }
    ],
    "privileges": [
        {
            "mask": 1,
            "type": "global",
            "account": "*"
        },
        {
            "mask": 15,
            "type": "global"
        }
    ]
}